{
  "parent": "dramaticdoors:recipes/root",
  "rewards": {
    "recipes": [
      "dramaticdoors:short_ms_bamboo_door"
    ]
  },
  "criteria": {
    "has_the_recipe": {
      "trigger": "minecraft:recipe_unlocked",
      "conditions": {
        "recipe": "dramaticdoors:short_ms_bamboo_door"
      }
    },
    "has_items": {
      "trigger": "minecraft:inventory_changed",
      "conditions": {
        "items": [
          {
            "items": [ "ms:door/bamboo" ]
          }
        ]
      }
    }
  },
  "requirements": [
    [
      "has_the_recipe",
      "has_items"
    ]
  ],
  "conditions": [
    {
      "type": "forge:and",
      "values": [
        {
          "type": "forge:not",
          "value": {
            "type": "forge:mod_loaded",
            "modid": "woodworks"
          }
        },
        {
          "type": "forge:mod_loaded",
          "modid": "ms"
        }
      ]
    }
  ]
}