{
  "type": "minecraft:stonecutting",
  "ingredient": {
      "item": "upgrade_aquatic:glass_door"
  },
  "result": "dramaticdoors:short_glass_door",
  "count": 2,
  "conditions": [
    {
      "type": "forge:mod_loaded",
      "modid": "upgrade_aquatic"
    }
  ]
}