{
  "type": "minecraft:stonecutting",
  "ingredient": {
      "item": "ms:door/grey_glass"
  },
  "result": "dramaticdoors:short_ms_grey_glass_door",
  "count": 2,
  "conditions": [
    {
      "type": "forge:mod_loaded",
      "modid": "ms"
    }
  ]
}