{
  "type": "woodworks:sawmill",
  "ingredient": {
      "item": "ms:door/hellwood"
  },
  "result": "dramaticdoors:short_ms_hellwood_door",
  "count": 2,
  "conditions": [
    {
      "type": "forge:and",
      "values": [
        {
          "type": "forge:mod_loaded",
          "modid": "woodworks"
        },
        {
          "type": "forge:mod_loaded",
          "modid": "ms"
        }
      ]
    }
  ]
}