{
  "type": "minecraft:stonecutting",
  "ingredient": {
      "item": "pokecube_legends:mirage_door"
  },
  "result": "dramaticdoors:short_pokecube_mirage_door",
  "count": 2,
  "conditions": [
    {
      "type": "forge:and",
      "values": [
        {
          "type": "forge:not",
          "value": {
            "type": "forge:mod_loaded",
            "modid": "woodworks"
          }
        },
        {
          "type": "forge:mod_loaded",
          "modid": "pokecube"
        }
      ]
    }
  ]
}