{
  "parent": "dramaticdoors:recipes/root",
  "rewards": {
    "recipes": [
      "dramaticdoors:short_morecraft_netherbrick_door"
    ]
  },
  "criteria": {
    "has_the_recipe": {
      "trigger": "minecraft:recipe_unlocked",
      "conditions": {
        "recipe": "dramaticdoors:short_morecraft_netherbrick_door"
      }
    },
    "has_items": {
      "trigger": "minecraft:inventory_changed",
      "conditions": {
        "items": [
          {
            "items": [ "morecraft:netherbrick_door" ]
          }
        ]
      }
    }
  },
  "requirements": [
    [
      "has_the_recipe",
      "has_items"
    ]
  ],
  "conditions": [
    {
      "type": "forge:mod_loaded",
      "modid": "morecraft"
    }
  ]
}